\relax 
\ifx\hyper@anchor\@undefined
\global \let \oldcontentsline\contentsline
\gdef \contentsline#1#2#3#4{\oldcontentsline{#1}{#2}{#3}}
\global \let \oldnewlabel\newlabel
\gdef \newlabel#1#2{\newlabelxx{#1}#2}
\gdef \newlabelxx#1#2#3#4#5#6{\oldnewlabel{#1}{{#2}{#3}}}
\AtEndDocument{\let \contentsline\oldcontentsline
\let \newlabel\oldnewlabel}
\else
\global \let \hyper@last\relax 
\fi

\select@language{english}
\@writefile{toc}{\select@language{english}}
\@writefile{lof}{\select@language{english}}
\@writefile{lot}{\select@language{english}}
\newlabel{the-cancer-genome-atlas-glioblastoma-data}{{}{1}{\relax }{section*.1}{}}
\newlabel{table-of-contents}{{}{1}{\relax }{section*.2}{}}
\@writefile{toc}{\contentsline {section}{1~~~Background}{1}{section*.4}}
\newlabel{background}{{}{1}{1~~~Background\phantomsection \addcontentsline {toc}{section}{1~~~Background}\label {background}\relax }{section*.4}{}}
\@writefile{toc}{\contentsline {section}{2~~~The Data}{2}{section*.6}}
\newlabel{the-data}{{}{2}{2~~~The Data\phantomsection \addcontentsline {toc}{section}{2~~~The Data}\label {the-data}\relax }{section*.6}{}}
\@writefile{toc}{\contentsline {subsection}{2.1~~~Methylation data preparation}{6}{section*.8}}
\newlabel{methylation-data-preparation}{{}{6}{2.1~~~Methylation data preparation\phantomsection \addcontentsline {toc}{subsection}{2.1~~~Methylation data preparation}\label {methylation-data-preparation}\relax }{section*.8}{}}
\@writefile{toc}{\contentsline {subsection}{2.2~~~CGH data preparation}{7}{section*.10}}
\newlabel{cgh-data-preparation}{{}{7}{2.2~~~CGH data preparation\phantomsection \addcontentsline {toc}{subsection}{2.2~~~CGH data preparation}\label {cgh-data-preparation}\relax }{section*.10}{}}
\@writefile{toc}{\contentsline {subsection}{2.3~~~Expression data preparation}{9}{section*.12}}
\newlabel{expression-data-preparation}{{}{9}{2.3~~~Expression data preparation\phantomsection \addcontentsline {toc}{subsection}{2.3~~~Expression data preparation}\label {expression-data-preparation}\relax }{section*.12}{}}
\@writefile{toc}{\contentsline {section}{3~~~Analyses}{10}{section*.14}}
\newlabel{analyses}{{}{10}{3~~~Analyses\phantomsection \addcontentsline {toc}{section}{3~~~Analyses}\label {analyses}\relax }{section*.14}{}}
\@writefile{toc}{\contentsline {subsection}{3.1~~~Expression and Methylation Correlation}{10}{section*.16}}
\newlabel{expression-and-methylation-correlation}{{}{10}{3.1~~~Expression and Methylation Correlation\phantomsection \addcontentsline {toc}{subsection}{3.1~~~Expression and Methylation Correlation}\label {expression-and-methylation-correlation}\relax }{section*.16}{}}
\@writefile{toc}{\contentsline {subsection}{3.2~~~CGH Data Analysis}{19}{section*.18}}
\newlabel{cgh-data-analysis}{{}{19}{3.2~~~CGH Data Analysis\phantomsection \addcontentsline {toc}{subsection}{3.2~~~CGH Data Analysis}\label {cgh-data-analysis}\relax }{section*.18}{}}
\@writefile{toc}{\contentsline {subsubsection}{3.2.1~~~Quality control issues}{19}{section*.20}}
\newlabel{quality-control-issues}{{}{19}{3.2.1~~~Quality control issues\phantomsection \addcontentsline {toc}{subsubsection}{3.2.1~~~Quality control issues}\label {quality-control-issues}\relax }{section*.20}{}}
\@writefile{toc}{\contentsline {subsubsection}{3.2.2~~~Data segmentation}{26}{section*.22}}
\newlabel{data-segmentation}{{}{26}{3.2.2~~~Data segmentation\phantomsection \addcontentsline {toc}{subsubsection}{3.2.2~~~Data segmentation}\label {data-segmentation}\relax }{section*.22}{}}
\@writefile{toc}{\contentsline {subsubsection}{3.2.3~~~Centering the CGH data}{28}{section*.24}}
\newlabel{centering-the-cgh-data}{{}{28}{3.2.3~~~Centering the CGH data\phantomsection \addcontentsline {toc}{subsubsection}{3.2.3~~~Centering the CGH data}\label {centering-the-cgh-data}\relax }{section*.24}{}}
\@writefile{toc}{\contentsline {subsubsection}{3.2.4~~~Global Copy Number Behavior}{33}{section*.26}}
\newlabel{global-copy-number-behavior}{{}{33}{3.2.4~~~Global Copy Number Behavior\phantomsection \addcontentsline {toc}{subsubsection}{3.2.4~~~Global Copy Number Behavior}\label {global-copy-number-behavior}\relax }{section*.26}{}}
\@writefile{toc}{\contentsline {subsection}{3.3~~~Follow up on interesting finding}{36}{section*.28}}
\newlabel{follow-up-on-interesting-finding}{{}{36}{3.3~~~Follow up on interesting finding\phantomsection \addcontentsline {toc}{subsection}{3.3~~~Follow up on interesting finding}\label {follow-up-on-interesting-finding}\relax }{section*.28}{}}
\@writefile{toc}{\contentsline {section}{4~~~Conclusions}{43}{section*.30}}
\newlabel{conclusions}{{}{43}{4~~~Conclusions\phantomsection \addcontentsline {toc}{section}{4~~~Conclusions}\label {conclusions}\relax }{section*.30}{}}
\@writefile{toc}{\contentsline {section}{5~~~sessionInfo}{44}{section*.32}}
\newlabel{sessioninfo}{{}{44}{5~~~sessionInfo\phantomsection \addcontentsline {toc}{section}{5~~~sessionInfo}\label {sessioninfo}\relax }{section*.32}{}}
